
























Linda Sutherland
Takoma Park, MD 20912
Aug 17, 2013

Bob Auton
Boone, NC 28607
Aug 17, 2013

pat case
Woodland, MN 55391
Aug 17, 2013

John and Nancy Woolley
Sequim, WA 98382-7649
Aug 17, 2013

Stuart Davis
Freeville, NY 13068
Aug 17, 2013

hernan alzuro
scottsdale, AZ 85254
Aug 17, 2013

Blair Gibb
Encinitas, CA 92024
Aug 17, 2013

Steven Kostelecky
Zuni, NM 87327
Aug 17, 2013

Johnathon Lemus
Bakersfield, CA 93312
Aug 17, 2013

Peggy Gaines
Miami, FL 33133
Aug 17, 2013

Why can't you greedy people leave federal lands alone? Isn't it enough that you put Native Americans on
"FEDERAL" land? Is it necessary to make it environmentally impossible to live ON FEDERAL LAND also?

Kathy Goble
Chicago, IL 60657
Aug 17, 2013

4074



